{
  "project_info": {
    "project_number": "572149173947",
    "firebase_url": "https://makikaki-21778.firebaseio.com",
    "project_id": "makikaki-21778",
    "storage_bucket": "makikaki-21778.appspot.com"
  },
  "client": [
    {
      "client_info": {
        "mobilesdk_app_id": "1:572149173947:android:906e4d67aa2c9c83",
        "android_client_info": {
          "package_name": "agency.yad.makimaki"
        }
      },
      "oauth_client": [
        {
          "client_id": "572149173947-oa4iqe1t4dme00t2h9550q0ba0ecnpb3.apps.googleusercontent.com",
          "client_type": 1,
          "android_info": {
            "package_name": "agency.yad.makimaki",
            "certificate_hash": "612d0fedb62c775bf775cb971fea1af3d96bf14e"
          }
        },
        {
          "client_id": "572149173947-bb1q49cq0j5f4eqjo87ccujhiuq9o5tl.apps.googleusercontent.com",
          "client_type": 3
        }
      ],
      "api_key": [
        {
          "current_key": "AIzaSyD8S-fNqq_VZueRaP-Cfu6Y_UEE3ZDva3o"
        }
      ],
      "services": {
        "analytics_service": {
          "status": 1
        },
        "appinvite_service": {
          "status": 2,
          "other_platform_oauth_client": [
            {
              "client_id": "572149173947-bb1q49cq0j5f4eqjo87ccujhiuq9o5tl.apps.googleusercontent.com",
              "client_type": 3
            },
            {
              "client_id": "572149173947-v40h496df7nnftdqg9o763ks0copitsv.apps.googleusercontent.com",
              "client_type": 2,
              "ios_info": {
                "bundle_id": "ru.restore.Makimaki",
                "app_store_id": "586541354"
              }
            }
          ]
        },
        "ads_service": {
          "status": 2
        }
      }
    }
  ],
  "configuration_version": "1"
}